…
| To avoid confusion and keep things running smoothly, let's remove the original data frame from
| your workspace with rm("mydf").

> rm("mydf")

| All that practice is paying off!

  |=================                                                                          |  18%

| From ?tbl_df, "The main advantage to using a tbl_df over a regular data frame is the printing."
| Let's see what is meant by this. Type cran to print our tbl_df to the console.

> cran
# A tibble: 225,468 x 11
       X       date     time    size r_version r_arch      r_os      package version country ip_id
   <int>      <chr>    <chr>   <int>     <chr>  <chr>     <chr>        <chr>   <chr>   <chr> <int>
 1     1 2014-07-08 00:54:41   80589     3.1.0 x86_64   mingw32    htmltools   0.2.4      US     1
 2     2 2014-07-08 00:59:53  321767     3.1.0 x86_64   mingw32      tseries 0.10-32      US     2
 3     3 2014-07-08 00:47:13  748063     3.1.0 x86_64 linux-gnu        party  1.0-15      US     3
 4     4 2014-07-08 00:48:05  606104     3.1.0 x86_64 linux-gnu        Hmisc  3.14-4      US     3
 5     5 2014-07-08 00:46:50   79825     3.0.2 x86_64 linux-gnu       digest   0.6.4      CA     4
 6     6 2014-07-08 00:48:04   77681     3.1.0 x86_64 linux-gnu randomForest   4.6-7      US     3
 7     7 2014-07-08 00:48:35  393754     3.1.0 x86_64 linux-gnu         plyr   1.8.1      US     3
 8     8 2014-07-08 00:47:30   28216     3.0.2 x86_64 linux-gnu      whisker   0.3-2      US     5
 9     9 2014-07-08 00:54:58    5928      <NA>   <NA>      <NA>         Rcpp  0.10.4      CN     6
10    10 2014-07-08 00:15:35 2206029     3.0.2 x86_64 linux-gnu     hflights     0.1      US     7
# ... with 225,458 more rows
…
  |========================                                                                   |  27%

| Help files for the other functions are accessible in the same way.

...

  |==========================                                                                 |  28%

| As may often be the case, particularly with larger datasets, we are only interested in some of the
| variables. Use select(cran, ip_id, package, country) to select only the ip_id, package, and
| country variables from the cran dataset.

> select(cran, ip_id, package, country)
# A tibble: 225,468 x 3
   ip_id      package country
   <int>        <chr>   <chr>
 1     1    htmltools      US
 2     2      tseries      US
 3     3        party      US
 4     3        Hmisc      US
 5     4       digest      CA
 6     3 randomForest      US
 7     3         plyr      US
 8     5      whisker      US
 9     6         Rcpp      CN
10     7     hflights      US
# ... with 225,458 more rows
…
> 5:20
 [1]  5  6  7  8  9 10 11 12 13 14 15 16 17 18 19 20

| That's a job well done!

  |================================                                                           |  35%

| Normally, this notation is reserved for numbers, but select() allows you to specify a sequence of
| columns this way, which can save a bunch of typing. Use select(cran, r_arch:country) to select all
| columns starting from r_arch and ending with country.

> select(cran, r_arch:country)
# A tibble: 225,468 x 5
   r_arch      r_os      package version country
    <chr>     <chr>        <chr>   <chr>   <chr>
 1 x86_64   mingw32    htmltools   0.2.4      US
 2 x86_64   mingw32      tseries 0.10-32      US
 3 x86_64 linux-gnu        party  1.0-15      US
 4 x86_64 linux-gnu        Hmisc  3.14-4      US
 5 x86_64 linux-gnu       digest   0.6.4      CA
 6 x86_64 linux-gnu randomForest   4.6-7      US
 7 x86_64 linux-gnu         plyr   1.8.1      US
 8 x86_64 linux-gnu      whisker   0.3-2      US
 9   <NA>      <NA>         Rcpp  0.10.4      CN
10 x86_64 linux-gnu     hflights     0.1      US
# ... with 225,458 more rows

| You are quite good my friend!

  |=================================                                                          |  37%

| We can also select the same columns in reverse order. Give it a try.

> select(cran, desc(r_arch:country))
Error in desc(r_arch:country) : object 'r_arch' not found
> select(cran, country:r_arch)
# A tibble: 225,468 x 5
   country version      package      r_os r_arch
     <chr>   <chr>        <chr>     <chr>  <chr>
 1      US   0.2.4    htmltools   mingw32 x86_64
 2      US 0.10-32      tseries   mingw32 x86_64
 3      US  1.0-15        party linux-gnu x86_64
 4      US  3.14-4        Hmisc linux-gnu x86_64
 5      CA   0.6.4       digest linux-gnu x86_64
 6      US   4.6-7 randomForest linux-gnu x86_64
 7      US   1.8.1         plyr linux-gnu x86_64
 8      US   0.3-2      whisker linux-gnu x86_64
 9      CN  0.10.4         Rcpp      <NA>   <NA>
10      US     0.1     hflights linux-gnu x86_64
# ... with 225,458 more rows

| That's the answer I was looking for.

  |===================================                                                        |  38%

| Print the entire dataset again, just to remind yourself of what it looks like. You can do this at
| anytime during the lesson.

> cran
# A tibble: 225,468 x 11
       X       date     time    size r_version r_arch      r_os      package version country ip_id
   <int>      <chr>    <chr>   <int>     <chr>  <chr>     <chr>        <chr>   <chr>   <chr> <int>
 1     1 2014-07-08 00:54:41   80589     3.1.0 x86_64   mingw32    htmltools   0.2.4      US     1
 2     2 2014-07-08 00:59:53  321767     3.1.0 x86_64   mingw32      tseries 0.10-32      US     2
 3     3 2014-07-08 00:47:13  748063     3.1.0 x86_64 linux-gnu        party  1.0-15      US     3
 4     4 2014-07-08 00:48:05  606104     3.1.0 x86_64 linux-gnu        Hmisc  3.14-4      US     3
 5     5 2014-07-08 00:46:50   79825     3.0.2 x86_64 linux-gnu       digest   0.6.4      CA     4
 6     6 2014-07-08 00:48:04   77681     3.1.0 x86_64 linux-gnu randomForest   4.6-7      US     3
 7     7 2014-07-08 00:48:35  393754     3.1.0 x86_64 linux-gnu         plyr   1.8.1      US     3
 8     8 2014-07-08 00:47:30   28216     3.0.2 x86_64 linux-gnu      whisker   0.3-2      US     5
 9     9 2014-07-08 00:54:58    5928      <NA>   <NA>      <NA>         Rcpp  0.10.4      CN     6
10    10 2014-07-08 00:15:35 2206029     3.0.2 x86_64 linux-gnu     hflights     0.1      US     7
# ... with 225,458 more rows

| Nice work!

  |====================================                                                       |  40%

| Instead of specifying the columns we want to keep, we can also specify the columns we want to
| throw away. To see how this works, do select(cran, -time) to omit the time column.

> select(cran, -time)
# A tibble: 225,468 x 10
       X       date    size r_version r_arch      r_os      package version country ip_id
   <int>      <chr>   <int>     <chr>  <chr>     <chr>        <chr>   <chr>   <chr> <int>
 1     1 2014-07-08   80589     3.1.0 x86_64   mingw32    htmltools   0.2.4      US     1
 2     2 2014-07-08  321767     3.1.0 x86_64   mingw32      tseries 0.10-32      US     2
 3     3 2014-07-08  748063     3.1.0 x86_64 linux-gnu        party  1.0-15      US     3
 4     4 2014-07-08  606104     3.1.0 x86_64 linux-gnu        Hmisc  3.14-4      US     3
 5     5 2014-07-08   79825     3.0.2 x86_64 linux-gnu       digest   0.6.4      CA     4
 6     6 2014-07-08   77681     3.1.0 x86_64 linux-gnu randomForest   4.6-7      US     3
 7     7 2014-07-08  393754     3.1.0 x86_64 linux-gnu         plyr   1.8.1      US     3
 8     8 2014-07-08   28216     3.0.2 x86_64 linux-gnu      whisker   0.3-2      US     5
 9     9 2014-07-08    5928      <NA>   <NA>      <NA>         Rcpp  0.10.4      CN     6
10    10 2014-07-08 2206029     3.0.2 x86_64 linux-gnu     hflights     0.1      US     7
# ... with 225,458 more rows
…
> -(5:20)
 [1]  -5  -6  -7  -8  -9 -10 -11 -12 -13 -14 -15 -16 -17 -18 -19 -20

| All that practice is paying off!

  |=========================================                                                  |  45%

| Use this knowledge to omit all columns X:size using select().

> select(cran, -(X:size))
# A tibble: 225,468 x 7
   r_version r_arch      r_os      package version country ip_id
       <chr>  <chr>     <chr>        <chr>   <chr>   <chr> <int>
 1     3.1.0 x86_64   mingw32    htmltools   0.2.4      US     1
 2     3.1.0 x86_64   mingw32      tseries 0.10-32      US     2
 3     3.1.0 x86_64 linux-gnu        party  1.0-15      US     3
 4     3.1.0 x86_64 linux-gnu        Hmisc  3.14-4      US     3
 5     3.0.2 x86_64 linux-gnu       digest   0.6.4      CA     4
 6     3.1.0 x86_64 linux-gnu randomForest   4.6-7      US     3
 7     3.1.0 x86_64 linux-gnu         plyr   1.8.1      US     3
 8     3.0.2 x86_64 linux-gnu      whisker   0.3-2      US     5
 9      <NA>   <NA>      <NA>         Rcpp  0.10.4      CN     6
10     3.0.2 x86_64 linux-gnu     hflights     0.1      US     7
# ... with 225,458 more rows
…
